<?xml version="1.0" encoding="utf-8"?>
<!-- Generator: Adobe Illustrator 21.1.0, SVG Export Plug-In . SVG Version: 6.00 Build 0)  -->
<svg version="1.1" id="Capa_1" xmlns="http://www.w3.org/2000/svg" xmlns:xlink="http://www.w3.org/1999/xlink" x="0px" y="0px"
	 viewBox="0 0 139.8 130.9" style="enable-background:new 0 0 139.8 130.9;" xml:space="preserve">
<style type="text/css">
	.st0{opacity:0.8;}
	.st1{fill:#FFFFFF;}
	.st2{opacity:0.75;fill:#FFFFFF;}
</style>
<g class="st0">
	<path class="st1" d="M131,34.8h-27.6c2-1.4,3.7-2.7,4.9-3.9c7-7.1,7-18.6,0-25.7c-6.8-6.9-18.8-6.9-25.6,0
		C78.9,9,68.8,24.4,70.2,34.8h-0.6C71,24.4,60.9,9,57.1,5.2c-6.8-6.9-18.8-6.9-25.6,0c-7,7.1-7,18.6,0,25.7c1.2,1.2,2.9,2.6,4.9,3.9
		H8.7c-4.8,0-8.7,3.9-8.7,8.7v21.8c0,2.4,2,4.4,4.4,4.4h4.4v52.4c0,4.8,3.9,8.7,8.7,8.7h104.8c4.8,0,8.7-3.9,8.7-8.7V69.7h4.4
		c2.4,0,4.4-2,4.4-4.4V43.5C139.8,38.7,135.9,34.8,131,34.8z M79.1,34.5c-2-2.1,3.8-17.2,9.7-23.2c3.5-3.6,9.7-3.5,13.2,0
		c3.7,3.7,3.7,9.7,0,13.4c-3.8,3.8-15.3,10.1-21.3,10.1C79.5,34.8,79.1,34.5,79.1,34.5z M37.7,24.7C34,21,34,15,37.7,11.3
		c1.8-1.8,4.1-2.8,6.6-2.8c2.5,0,4.8,1,6.6,2.8c5.9,5.9,11.7,21.1,9.7,23.2c0,0-0.4,0.3-1.6,0.3C53,34.8,41.5,28.5,37.7,24.7z
		 M8.7,43.5H59h6.5V61H8.7V43.5z M17.5,69.7h48v52.4h-48V69.7z M122.3,122.1h-48V69.7h48V122.1z M131,61H74.3V43.5h6.5H131V61z"/>
	<path class="st2" d="M131,34.8h-27.6c2-1.4,3.7-2.7,4.9-3.9c7-7.1,7-18.6,0-25.7c-6.8-6.9-18.8-6.9-25.6,0
		C78.9,9,68.8,24.4,70.2,34.8h-0.6C71,24.4,60.9,9,57.1,5.2c-6.8-6.9-18.8-6.9-25.6,0c-7,7.1-7,18.6,0,25.7c1.2,1.2,2.9,2.6,4.9,3.9
		H8.7c-4.8,0-8.7,3.9-8.7,8.7v21.8c0,2.4,2,4.4,4.4,4.4h4.4v52.4c0,4.8,3.9,8.7,8.7,8.7h104.8c4.8,0,8.7-3.9,8.7-8.7V69.7h4.4
		c2.4,0,4.4-2,4.4-4.4V43.5C139.8,38.7,135.9,34.8,131,34.8z M79.1,34.5c-2-2.1,3.8-17.2,9.7-23.2c3.5-3.6,9.7-3.5,13.2,0
		c3.7,3.7,3.7,9.7,0,13.4c-3.8,3.8-15.3,10.1-21.3,10.1C79.5,34.8,79.1,34.5,79.1,34.5z M37.7,24.7C34,21,34,15,37.7,11.3
		c1.8-1.8,4.1-2.8,6.6-2.8c2.5,0,4.8,1,6.6,2.8c5.9,5.9,11.7,21.1,9.7,23.2c0,0-0.4,0.3-1.6,0.3C53,34.8,41.5,28.5,37.7,24.7z
		 M8.7,43.5H59h6.5V61H8.7V43.5z M17.5,69.7h48v52.4h-48V69.7z M122.3,122.1h-48V69.7h48V122.1z M131,61H74.3V43.5h6.5H131V61z"/>
</g>
</svg>
