<?xml version="1.0" encoding="utf-8"?>
<!-- Generator: Adobe Illustrator 21.1.0, SVG Export Plug-In . SVG Version: 6.00 Build 0)  -->
<svg version="1.1" id="Capa_1" xmlns="http://www.w3.org/2000/svg" xmlns:xlink="http://www.w3.org/1999/xlink" x="0px" y="0px"
	 viewBox="0 0 468.5 432" style="enable-background:new 0 0 468.5 432;" xml:space="preserve">
<style type="text/css">
	.st0{opacity:5.000000e-02;}
	.st1{fill:#205493;stroke:#1B75BB;stroke-width:0.4602;stroke-miterlimit:10;}
	.st2{fill:#205EA4;stroke:#1B75BB;stroke-width:0.4602;stroke-miterlimit:10;}
	.st3{fill:#1B75BB;stroke:#1B75BB;stroke-width:0.4602;stroke-miterlimit:10;}
	.st4{fill:#F17F34;}
	.st5{fill:#D10000;}
	.st6{fill:#EE4136;stroke:#EE4136;stroke-width:0.5928;stroke-linejoin:round;stroke-miterlimit:10;}
	.st7{fill:#324A5E;}
	.st8{fill:#F6B545;}
</style>
<circle class="st0" cx="252.5" cy="216" r="216"/>
<path class="st1" d="M88,352.4c38.9,47,97.9,77.1,164,77.1s124.8-29.8,164-77.1H88z"/>
<path class="st2" d="M395.5,352.4H209.1l0,0c0-16.1,13.1-29.2,29.2-29.2h128.1C382.5,323.3,395.5,336.3,395.5,352.4L395.5,352.4z"/>
<path class="st3" d="M368,323.3H236.9c-7.7,0-13.8-6.4-13.8-13.8l0,0c0-7.7,6.4-13.8,13.8-13.8H368c7.7,0,13.8,6.4,13.8,13.8l0,0
	C381.8,317.2,375.4,323.3,368,323.3z"/>
<g>
	<g>
		<path class="st4" d="M202.4,199.3c-20.1,12.9-45.5,28.5-68.3,41.7c-66.8,38.3-87.6,45.9-96,43.6c-0.8,5.7-4.6,11.4-10.2,14
			c-9.5,4.9-21.2,0.8-25.8-8.7c-4.9-9.5-0.8-21.2,8.7-25.8c5.7-3,12.1-2.7,17.5,0c3-8,21.6-20.5,92.2-51.2
			c23.9-10.6,51.6-21.6,74-30L202.4,199.3z"/>
		
			<rect x="182" y="108.7" transform="matrix(0.8933 -0.4495 0.4495 0.8933 -32.2795 112.917)" class="st5" width="79.3" height="31.5"/>
		<polygon class="st5" points="309,208.8 237.7,244.4 223.7,216.4 294.6,180.7 		"/>
	</g>
	<g>
		<path class="st6" d="M320.4,228.9l-73.2,36.8c-4.9,2.7-11,0.4-13.7-4.6l-1.5-2.7c-2.7-4.9-0.4-11,4.6-13.7l73.2-36.8
			c4.9-2.7,11-0.4,13.7,4.6l1.5,2.7C327.2,220.5,325.3,226.6,320.4,228.9z"/>
		<path class="st6" d="M251.4,91.9l-73.2,36.8c-4.9,2.7-11,0.4-13.7-4.6l-1.5-2.7c-2.7-4.9-0.4-11,4.6-13.7L240.7,71
			c4.9-2.7,11-0.4,13.7,4.6l1.5,2.7C258.2,83.2,256.3,89.3,251.4,91.9z"/>
	</g>
	<path id="SVGCleanerId_0_3_" class="st7" d="M295,180.7l-71.7,36c-5.3,2.7-11.8,0.4-14.4-4.9L188,170.4c-2.7-5.3-0.4-11.8,4.9-14.4
		l71.7-36c5.3-2.7,11.8-0.4,14.4,4.9l20.9,41.4C302.6,171.6,300.3,178,295,180.7z"/>
	<g>
		<path id="SVGCleanerId_0_2_" class="st8" d="M295,180.7l-71.7,36c-5.3,2.7-11.8,0.4-14.4-4.9L188,170.4
			c-2.7-5.3-0.4-11.8,4.9-14.4l71.7-36c5.3-2.7,11.8-0.4,14.4,4.9l20.9,41.4C302.6,171.6,300.3,178,295,180.7z"/>
	</g>
</g>
</svg>
